{
	"info": {
		"_postman_id": "da405c67-a7cf-4853-882d-8de469586167",
		"name": "TGG Maui GetCandidatePIN",
		"schema": "https://schema.getpostman.com/json/collection/v2.1.0/collection.json"
	},
	"item": [
		{
			"name": "Get GetCandidatePIN Dob Format 01/01/1970",
			"event": [
				{
					"listen": "test",
					"script": {
						"exec": [
							"pm.test(\"Status code is 200\", function () {\r",
							"    pm.response.to.have.status(200);\r",
							"});\r",
							"\r",
							"pm.test(\"Body matches string\", function () {\r",
							"    pm.expect(pm.response.text()).to.include(\"OK\");\r",
							"});\r",
							"\r",
							"pm.test(\"Body matches string\", function () {\r",
							"    pm.expect(pm.response.text()).to.include(\"pin\");\r",
							"});\r",
							"\r",
							"pm.test(\"Body matches string\", function () {\r",
							"    pm.expect(pm.response.text()).to.include(\"pintype\");\r",
							"});\r",
							"\r",
							"pm.test(\"Body matches string\", function () {\r",
							"    pm.expect(pm.response.text()).to.include(\"wref\");\r",
							"});"
						],
						"type": "text/javascript"
					}
				}
			],
			"request": {
				"method": "POST",
				"header": [],
				"url": {
					"raw": "https://{{Url}}/services/TGG/GetCandidatePIN.aspx?ClientID=tgg-sit&Key=a661803073f6&wref=W099999999&dob=01/01/1970&Note=Testing GetCandidatePIN",
					"protocol": "https",
					"host": [
						"{{Url}}"
					],
					"path": [
						"services",
						"TGG",
						"GetCandidatePIN.aspx"
					],
					"query": [
						{
							"key": "ClientID",
							"value": "tgg-sit"
						},
						{
							"key": "Key",
							"value": "a661803073f6"
						},
						{
							"key": "wref",
							"value": "W099999999"
						},
						{
							"key": "dob",
							"value": "01/01/1970"
						},
						{
							"key": "Note",
							"value": "Testing GetCandidatePIN"
						}
					]
				}
			},
			"response": []
		},
		{
			"name": "Get GetCandidatePIN Dob Format 1971-01-31",
			"request": {
				"method": "POST",
				"header": [],
				"url": {
					"raw": "https://{{Url}}/services/TGG/GetCandidatePIN.aspx?ClientID=tgg-sit&Key=a661803073f6&wref=W099999999&dob=01/01/1970&Note=Testing GetCandidatePIN",
					"protocol": "https",
					"host": [
						"{{Url}}"
					],
					"path": [
						"services",
						"TGG",
						"GetCandidatePIN.aspx"
					],
					"query": [
						{
							"key": "ClientID",
							"value": "tgg-sit"
						},
						{
							"key": "Key",
							"value": "a661803073f6"
						},
						{
							"key": "wref",
							"value": "W099999999"
						},
						{
							"key": "dob",
							"value": "01/01/1970"
						},
						{
							"key": "Note",
							"value": "Testing GetCandidatePIN"
						}
					]
				}
			},
			"response": []
		},
		{
			"name": "Get GetCandidatePIN Dob Format 1972-01-29T18:25:43.511Z",
			"request": {
				"method": "POST",
				"header": [],
				"url": {
					"raw": "https://{{Url}}/services/TGG/GetCandidatePIN.aspx?ClientID=tgg-sit&Key=a661803073f6&wref=W099999999&dob=01/01/1970&Note=Testing GetCandidatePIN",
					"protocol": "https",
					"host": [
						"{{Url}}"
					],
					"path": [
						"services",
						"TGG",
						"GetCandidatePIN.aspx"
					],
					"query": [
						{
							"key": "ClientID",
							"value": "tgg-sit"
						},
						{
							"key": "Key",
							"value": "a661803073f6"
						},
						{
							"key": "wref",
							"value": "W099999999"
						},
						{
							"key": "dob",
							"value": "01/01/1970"
						},
						{
							"key": "Note",
							"value": "Testing GetCandidatePIN"
						}
					]
				}
			},
			"response": []
		},
		{
			"name": "Post GetCandidatePIN - Empty Body",
			"event": [
				{
					"listen": "test",
					"script": {
						"exec": [
							"pm.test(\"Status code is 200\", function () {\r",
							"    pm.response.to.have.status(200);\r",
							"});\r",
							"\r",
							"pm.test(\"Body matches string\", function () {\r",
							"    pm.expect(pm.response.text()).to.include(\"ERROR\");\r",
							"});\r",
							"\r",
							"pm.test(\"Body matches string\", function () {\r",
							"    pm.expect(pm.response.text()).to.include(\"ERROR_OTHER\");\r",
							"});"
						],
						"type": "text/javascript"
					}
				}
			],
			"request": {
				"method": "POST",
				"header": [],
				"body": {
					"mode": "formdata",
					"formdata": [
						{
							"key": "clientID",
							"value": "tgg-sit",
							"type": "text",
							"disabled": true
						},
						{
							"key": "dob",
							"value": "01/01/1970",
							"type": "text",
							"disabled": true
						},
						{
							"key": "key",
							"value": "a661803073f6",
							"type": "text",
							"disabled": true
						},
						{
							"key": "wref",
							"value": "W99999999",
							"type": "text",
							"disabled": true
						}
					]
				},
				"url": {
					"raw": "https://{{Url}}/services/TGG/GetCandidatePIN.aspx",
					"protocol": "https",
					"host": [
						"{{Url}}"
					],
					"path": [
						"services",
						"TGG",
						"GetCandidatePIN.aspx"
					]
				}
			},
			"response": []
		},
		{
			"name": "Negative Get GetCandidatePIN- Invalid dob",
			"event": [
				{
					"listen": "test",
					"script": {
						"exec": [
							"pm.test(\"Status code is 200\", function () {\r",
							"    pm.response.to.have.status(200);\r",
							"});\r",
							"\r",
							"pm.test(\"Body matches string\", function () {\r",
							"    pm.expect(pm.response.text()).to.include(\"ERROR\");\r",
							"});\r",
							"\r",
							"pm.test(\"Body matches string\", function () {\r",
							"    pm.expect(pm.response.text()).to.include(\"INVALID_PARAMS\");\r",
							"});"
						],
						"type": "text/javascript"
					}
				}
			],
			"request": {
				"method": "POST",
				"header": [],
				"url": {
					"raw": "https://{{Url}}/services/TGG/GetCandidatePIN.aspx?ClientID=tgg-sit&Key=a661803073f6&wref=W099999999&dob=01/01/197011&Note=Testing GetCandidatePIN",
					"protocol": "https",
					"host": [
						"{{Url}}"
					],
					"path": [
						"services",
						"TGG",
						"GetCandidatePIN.aspx"
					],
					"query": [
						{
							"key": "ClientID",
							"value": "tgg-sit"
						},
						{
							"key": "Key",
							"value": "a661803073f6"
						},
						{
							"key": "wref",
							"value": "W099999999"
						},
						{
							"key": "dob",
							"value": "01/01/197011"
						},
						{
							"key": "Note",
							"value": "Testing GetCandidatePIN"
						}
					]
				}
			},
			"response": []
		},
		{
			"name": "Negative Get GetCandidatePIN- Invalid Wref",
			"event": [
				{
					"listen": "test",
					"script": {
						"exec": [
							"pm.test(\"Status code is 200\", function () {\r",
							"    pm.response.to.have.status(200);\r",
							"});\r",
							"\r",
							"pm.test(\"Body matches string\", function () {\r",
							"    pm.expect(pm.response.text()).to.include(\"ERROR\");\r",
							"});\r",
							"\r",
							"pm.test(\"Body matches string\", function () {\r",
							"    pm.expect(pm.response.text()).to.include(\"INVALID_PARAMS\");\r",
							"});"
						],
						"type": "text/javascript"
					}
				}
			],
			"request": {
				"method": "POST",
				"header": [],
				"url": {
					"raw": "https://{{Url}}/services/TGG/GetCandidatePIN.aspx?ClientID=tgg-sit&Key=a661803073f6&wref=W 099999999&dob=01/01/1970&Note=Testing GetCandidatePIN",
					"protocol": "https",
					"host": [
						"{{Url}}"
					],
					"path": [
						"services",
						"TGG",
						"GetCandidatePIN.aspx"
					],
					"query": [
						{
							"key": "ClientID",
							"value": "tgg-sit"
						},
						{
							"key": "Key",
							"value": "a661803073f6"
						},
						{
							"key": "wref",
							"value": "W 099999999"
						},
						{
							"key": "dob",
							"value": "01/01/1970"
						},
						{
							"key": "Note",
							"value": "Testing GetCandidatePIN"
						}
					]
				}
			},
			"response": []
		},
		{
			"name": "Negative Get GetCandidatePIN- Empty Wref",
			"event": [
				{
					"listen": "test",
					"script": {
						"exec": [
							"pm.test(\"Status code is 200\", function () {\r",
							"    pm.response.to.have.status(200);\r",
							"});\r",
							"\r",
							"pm.test(\"Body matches string\", function () {\r",
							"    pm.expect(pm.response.text()).to.include(\"ERROR\");\r",
							"});\r",
							"\r",
							"pm.test(\"Body matches string\", function () {\r",
							"    pm.expect(pm.response.text()).to.include(\"INVALID_PARAMS\");\r",
							"});"
						],
						"type": "text/javascript"
					}
				}
			],
			"request": {
				"method": "POST",
				"header": [],
				"url": {
					"raw": "https://{{Url}}/services/TGG/GetCandidatePIN.aspx?ClientID=tgg-sit&Key=a661803073f6&Wref=&dob=01/01/1970&Note=Testing GetCandidatePIN",
					"protocol": "https",
					"host": [
						"{{Url}}"
					],
					"path": [
						"services",
						"TGG",
						"GetCandidatePIN.aspx"
					],
					"query": [
						{
							"key": "ClientID",
							"value": "tgg-sit"
						},
						{
							"key": "Key",
							"value": "a661803073f6"
						},
						{
							"key": "Wref",
							"value": ""
						},
						{
							"key": "dob",
							"value": "01/01/1970"
						},
						{
							"key": "Note",
							"value": "Testing GetCandidatePIN"
						}
					]
				}
			},
			"response": []
		},
		{
			"name": "Negative Get GetCandidatePIN- Empty Dob",
			"event": [
				{
					"listen": "test",
					"script": {
						"exec": [
							"pm.test(\"Status code is 200\", function () {\r",
							"    pm.response.to.have.status(200);\r",
							"});\r",
							"\r",
							"pm.test(\"Body matches string\", function () {\r",
							"    pm.expect(pm.response.text()).to.include(\"ERROR\");\r",
							"});\r",
							"\r",
							"pm.test(\"Body matches string\", function () {\r",
							"    pm.expect(pm.response.text()).to.include(\"INVALID_PARAMS\");\r",
							"});"
						],
						"type": "text/javascript"
					}
				}
			],
			"request": {
				"method": "POST",
				"header": [],
				"url": {
					"raw": "https://{{Url}}/services/TGG/GetCandidatePIN.aspx?ClientID=tgg-sit&Key=a661803073f6&wref=W 099999999&dob=&Note=Testing GetCandidatePIN",
					"protocol": "https",
					"host": [
						"{{Url}}"
					],
					"path": [
						"services",
						"TGG",
						"GetCandidatePIN.aspx"
					],
					"query": [
						{
							"key": "ClientID",
							"value": "tgg-sit"
						},
						{
							"key": "Key",
							"value": "a661803073f6"
						},
						{
							"key": "wref",
							"value": "W 099999999"
						},
						{
							"key": "dob",
							"value": ""
						},
						{
							"key": "Note",
							"value": "Testing GetCandidatePIN"
						}
					]
				}
			},
			"response": []
		},
		{
			"name": "Negative Get GetCandidatePIN- Empty ClientID",
			"request": {
				"method": "POST",
				"header": [],
				"url": {
					"raw": "https://{{Url}}/services/TGG/GetCandidatePIN.aspx?ClientID=&Key=a661803073f6&wref=W 099999999&dob=01/01/1970&Note=Testing GetCandidatePIN",
					"protocol": "https",
					"host": [
						"{{Url}}"
					],
					"path": [
						"services",
						"TGG",
						"GetCandidatePIN.aspx"
					],
					"query": [
						{
							"key": "ClientID",
							"value": ""
						},
						{
							"key": "Key",
							"value": "a661803073f6"
						},
						{
							"key": "wref",
							"value": "W 099999999"
						},
						{
							"key": "dob",
							"value": "01/01/1970"
						},
						{
							"key": "Note",
							"value": "Testing GetCandidatePIN"
						}
					]
				}
			},
			"response": []
		},
		{
			"name": "Negative Get GetCandidatePIN- Empty Key",
			"event": [
				{
					"listen": "test",
					"script": {
						"exec": [
							"pm.test(\"Status code is 200\", function () {\r",
							"    pm.response.to.have.status(200);\r",
							"});\r",
							"\r",
							"pm.test(\"Body matches string\", function () {\r",
							"    pm.expect(pm.response.text()).to.include(\"ERROR\");\r",
							"});\r",
							"\r",
							"pm.test(\"Body matches string\", function () {\r",
							"    pm.expect(pm.response.text()).to.include(\"INVALID_CLIENTKEY\");\r",
							"});"
						],
						"type": "text/javascript"
					}
				}
			],
			"request": {
				"method": "POST",
				"header": [],
				"url": {
					"raw": "https://{{Url}}/services/TGG/GetCandidatePIN.aspx?ClientID=tgg-sit&Key=&wref=W 099999999&dob=01/01/1970&Note=Testing GetCandidatePIN",
					"protocol": "https",
					"host": [
						"{{Url}}"
					],
					"path": [
						"services",
						"TGG",
						"GetCandidatePIN.aspx"
					],
					"query": [
						{
							"key": "ClientID",
							"value": "tgg-sit"
						},
						{
							"key": "Key",
							"value": ""
						},
						{
							"key": "wref",
							"value": "W 099999999"
						},
						{
							"key": "dob",
							"value": "01/01/1970"
						},
						{
							"key": "Note",
							"value": "Testing GetCandidatePIN"
						}
					]
				}
			},
			"response": []
		},
		{
			"name": "Negative Post GetCandidatePIN- Invalid clientID",
			"event": [
				{
					"listen": "test",
					"script": {
						"exec": [
							"pm.test(\"Status code is 200\", function () {\r",
							"    pm.response.to.have.status(200);\r",
							"});\r",
							"\r",
							"pm.test(\"Body matches string\", function () {\r",
							"    pm.expect(pm.response.text()).to.include(\"ERROR\");\r",
							"});\r",
							"\r",
							"pm.test(\"Body matches string\", function () {\r",
							"    pm.expect(pm.response.text()).to.include(\"INVALID_CLIENTKEY\");\r",
							"});"
						],
						"type": "text/javascript"
					}
				}
			],
			"request": {
				"method": "POST",
				"header": [],
				"body": {
					"mode": "formdata",
					"formdata": [
						{
							"key": "clientID",
							"value": "invalid",
							"type": "text"
						},
						{
							"key": "dob",
							"value": "01/01/1970",
							"type": "text"
						},
						{
							"key": "key",
							"value": "a661803073f6",
							"type": "text"
						},
						{
							"key": "wref",
							"value": "W99999999",
							"type": "text"
						}
					]
				},
				"url": {
					"raw": "https://{{Url}}/services/TGG/GetCandidatePIN.aspx",
					"protocol": "https",
					"host": [
						"{{Url}}"
					],
					"path": [
						"services",
						"TGG",
						"GetCandidatePIN.aspx"
					]
				}
			},
			"response": []
		},
		{
			"name": "Negative Post GetCandidatePIN Invalid Wref",
			"event": [
				{
					"listen": "test",
					"script": {
						"exec": [
							"pm.test(\"Status code is 200\", function () {\r",
							"    pm.response.to.have.status(200);\r",
							"});\r",
							"\r",
							"pm.test(\"Body matches string\", function () {\r",
							"    pm.expect(pm.response.text()).to.include(\"ERROR\");\r",
							"});\r",
							"\r",
							"pm.test(\"Body matches string\", function () {\r",
							"    pm.expect(pm.response.text()).to.include(\"INVALID_PARAMS\");\r",
							"});"
						],
						"type": "text/javascript"
					}
				}
			],
			"request": {
				"method": "POST",
				"header": [],
				"body": {
					"mode": "formdata",
					"formdata": [
						{
							"key": "clientID",
							"value": "tgg-sit",
							"type": "text"
						},
						{
							"key": "dob",
							"value": "01/01/1970",
							"type": "text"
						},
						{
							"key": "key",
							"value": "a661803073f6",
							"type": "text"
						},
						{
							"key": "wref",
							"value": "W99999999INVALID",
							"type": "text"
						}
					]
				},
				"url": {
					"raw": "https://{{Url}}/services/TGG/GetCandidatePIN.aspx",
					"protocol": "https",
					"host": [
						"{{Url}}"
					],
					"path": [
						"services",
						"TGG",
						"GetCandidatePIN.aspx"
					]
				}
			},
			"response": []
		},
		{
			"name": "Negative Get GetCandidatePIN - Delete method",
			"event": [
				{
					"listen": "test",
					"script": {
						"exec": [
							"pm.test(\"Status code is 405\", function () {\r",
							"    pm.response.to.have.status(405);\r",
							"});"
						],
						"type": "text/javascript"
					}
				}
			],
			"request": {
				"method": "DELETE",
				"header": [],
				"url": {
					"raw": "https://{{Url}}/services/TGG/GetCandidatePIN.aspx?ClientID=tgg-sit&Key=a661803073f6&wref=W99999999&dob=01/01/1970&Note=Testing GetCandidatePIN",
					"protocol": "https",
					"host": [
						"{{Url}}"
					],
					"path": [
						"services",
						"TGG",
						"GetCandidatePIN.aspx"
					],
					"query": [
						{
							"key": "ClientID",
							"value": "tgg-sit"
						},
						{
							"key": "Key",
							"value": "a661803073f6"
						},
						{
							"key": "wref",
							"value": "W99999999"
						},
						{
							"key": "dob",
							"value": "01/01/1970"
						},
						{
							"key": "Note",
							"value": "Testing GetCandidatePIN"
						}
					]
				}
			},
			"response": []
		},
		{
			"name": "Negative Get GetCandidatePIN - Put method",
			"event": [
				{
					"listen": "test",
					"script": {
						"exec": [
							"pm.test(\"Status code is 405\", function () {\r",
							"    pm.response.to.have.status(405);\r",
							"});"
						],
						"type": "text/javascript"
					}
				}
			],
			"request": {
				"method": "PUT",
				"header": [],
				"url": {
					"raw": "https://{{Url}}/services/TGG/GetCandidatePIN.aspx?ClientID=tgg-sit&Key=a661803073f6&wref=W99999999&dob=01/01/1970&Note=Testing GetCandidatePIN",
					"protocol": "https",
					"host": [
						"{{Url}}"
					],
					"path": [
						"services",
						"TGG",
						"GetCandidatePIN.aspx"
					],
					"query": [
						{
							"key": "ClientID",
							"value": "tgg-sit"
						},
						{
							"key": "Key",
							"value": "a661803073f6"
						},
						{
							"key": "wref",
							"value": "W99999999"
						},
						{
							"key": "dob",
							"value": "01/01/1970"
						},
						{
							"key": "Note",
							"value": "Testing GetCandidatePIN"
						}
					]
				}
			},
			"response": []
		}
	]
}